^C:\USERS\500132496\DESKTOP\C++\EGJ.MADLIB\EGJ.MADLIB\MAIN.CPP
C:\USERS\500132496\DESKTOP\C++\EGJ.MADLIB\EGJ.MADLIB\DEBUG\VC141.PDB
C:\USERS\500132496\DESKTOP\C++\EGJ.MADLIB\EGJ.MADLIB\DEBUG\VC141.IDB
C:\USERS\500132496\DESKTOP\C++\EGJ.MADLIB\EGJ.MADLIB\DEBUG\MAIN.OBJ
